{
    "id": "saveTransfer",
    "name": "Save Transfer",
    "author": "DarkRevenant",
    "version": "1.12.0",
    "utility": "true",
    "description": "Copies data from one save file to the other.",
    "gameVersion": "0.8.1a",
	"jars":["jars/SaveTransfer.jar",
			"jars/commons-codec-1.10.jar"]
}
